^C:\USERS\MAGSHIMIM\DOCUMENTS\MAGSHIMIM\C++\HW\29.11--7,PROJECT\CHESS\CHESS\ENGINE\STDAFX.CPP
/c /ZI /nologo /W3 /WX- /diagnostics:classic /sdl /Od /D _MBCS /Gm- /EHsc /RTC1 /MDd /GS /fp:precise /permissive- /Zc:wchar_t /Zc:forScope /Zc:inline /Fo"X64\DEBUG\\" /Fd"X64\DEBUG\VC141.PDB" /Gd /TP /FC C:\USERS\MAGSHIMIM\DOCUMENTS\MAGSHIMIM\C++\HW\29.11--7,PROJECT\CHESS\CHESS\ENGINE\STDAFX.CPP
^C:\USERS\MAGSHIMIM\DOCUMENTS\MAGSHIMIM\C++\HW\29.11--7,PROJECT\CHESS\CHESS\ENGINE\BISHOP.CPP
/c /ZI /nologo /W3 /WX- /diagnostics:classic /sdl /Od /D _MBCS /Gm- /EHsc /RTC1 /MDd /GS /fp:precise /permissive- /Zc:wchar_t /Zc:forScope /Zc:inline /Fo"X64\DEBUG\\" /Fd"X64\DEBUG\VC141.PDB" /Gd /TP /FC C:\USERS\MAGSHIMIM\DOCUMENTS\MAGSHIMIM\C++\HW\29.11--7,PROJECT\CHESS\CHESS\ENGINE\BISHOP.CPP
^C:\USERS\MAGSHIMIM\DOCUMENTS\MAGSHIMIM\C++\HW\29.11--7,PROJECT\CHESS\CHESS\ENGINE\COMM.CPP
/c /ZI /nologo /W3 /WX- /diagnostics:classic /sdl /Od /D _MBCS /Gm- /EHsc /RTC1 /MDd /GS /fp:precise /permissive- /Zc:wchar_t /Zc:forScope /Zc:inline /Fo"X64\DEBUG\\" /Fd"X64\DEBUG\VC141.PDB" /Gd /TP /FC C:\USERS\MAGSHIMIM\DOCUMENTS\MAGSHIMIM\C++\HW\29.11--7,PROJECT\CHESS\CHESS\ENGINE\COMM.CPP
^C:\USERS\MAGSHIMIM\DOCUMENTS\MAGSHIMIM\C++\HW\29.11--7,PROJECT\CHESS\CHESS\ENGINE\KING.CPP
/c /ZI /nologo /W3 /WX- /diagnostics:classic /sdl /Od /D _MBCS /Gm- /EHsc /RTC1 /MDd /GS /fp:precise /permissive- /Zc:wchar_t /Zc:forScope /Zc:inline /Fo"X64\DEBUG\\" /Fd"X64\DEBUG\VC141.PDB" /Gd /TP /FC C:\USERS\MAGSHIMIM\DOCUMENTS\MAGSHIMIM\C++\HW\29.11--7,PROJECT\CHESS\CHESS\ENGINE\KING.CPP
^C:\USERS\MAGSHIMIM\DOCUMENTS\MAGSHIMIM\C++\HW\29.11--7,PROJECT\CHESS\CHESS\ENGINE\PAWN.CPP
/c /ZI /nologo /W3 /WX- /diagnostics:classic /sdl /Od /D _MBCS /Gm- /EHsc /RTC1 /MDd /GS /fp:precise /permissive- /Zc:wchar_t /Zc:forScope /Zc:inline /Fo"X64\DEBUG\\" /Fd"X64\DEBUG\VC141.PDB" /Gd /TP /FC C:\USERS\MAGSHIMIM\DOCUMENTS\MAGSHIMIM\C++\HW\29.11--7,PROJECT\CHESS\CHESS\ENGINE\PAWN.CPP
^C:\USERS\MAGSHIMIM\DOCUMENTS\MAGSHIMIM\C++\HW\29.11--7,PROJECT\CHESS\CHESS\ENGINE\PIECE.CPP
/c /ZI /nologo /W3 /WX- /diagnostics:classic /sdl /Od /D _MBCS /Gm- /EHsc /RTC1 /MDd /GS /fp:precise /permissive- /Zc:wchar_t /Zc:forScope /Zc:inline /Fo"X64\DEBUG\\" /Fd"X64\DEBUG\VC141.PDB" /Gd /TP /FC C:\USERS\MAGSHIMIM\DOCUMENTS\MAGSHIMIM\C++\HW\29.11--7,PROJECT\CHESS\CHESS\ENGINE\PIECE.CPP
^C:\USERS\MAGSHIMIM\DOCUMENTS\MAGSHIMIM\C++\HW\29.11--7,PROJECT\CHESS\CHESS\ENGINE\QUEEN.CPP
/c /ZI /nologo /W3 /WX- /diagnostics:classic /sdl /Od /D _MBCS /Gm- /EHsc /RTC1 /MDd /GS /fp:precise /permissive- /Zc:wchar_t /Zc:forScope /Zc:inline /Fo"X64\DEBUG\\" /Fd"X64\DEBUG\VC141.PDB" /Gd /TP /FC C:\USERS\MAGSHIMIM\DOCUMENTS\MAGSHIMIM\C++\HW\29.11--7,PROJECT\CHESS\CHESS\ENGINE\QUEEN.CPP
^C:\USERS\MAGSHIMIM\DOCUMENTS\MAGSHIMIM\C++\HW\29.11--7,PROJECT\CHESS\CHESS\ENGINE\KNIGHT.CPP
/c /ZI /nologo /W3 /WX- /diagnostics:classic /sdl /Od /D _MBCS /Gm- /EHsc /RTC1 /MDd /GS /fp:precise /permissive- /Zc:wchar_t /Zc:forScope /Zc:inline /Fo"X64\DEBUG\\" /Fd"X64\DEBUG\VC141.PDB" /Gd /TP /FC C:\USERS\MAGSHIMIM\DOCUMENTS\MAGSHIMIM\C++\HW\29.11--7,PROJECT\CHESS\CHESS\ENGINE\KNIGHT.CPP
^C:\USERS\MAGSHIMIM\DOCUMENTS\MAGSHIMIM\C++\HW\29.11--7,PROJECT\CHESS\CHESS\ENGINE\ROOK.CPP
/c /ZI /nologo /W3 /WX- /diagnostics:classic /sdl /Od /D _MBCS /Gm- /EHsc /RTC1 /MDd /GS /fp:precise /permissive- /Zc:wchar_t /Zc:forScope /Zc:inline /Fo"X64\DEBUG\\" /Fd"X64\DEBUG\VC141.PDB" /Gd /TP /FC C:\USERS\MAGSHIMIM\DOCUMENTS\MAGSHIMIM\C++\HW\29.11--7,PROJECT\CHESS\CHESS\ENGINE\ROOK.CPP
^C:\USERS\MAGSHIMIM\DOCUMENTS\MAGSHIMIM\C++\HW\29.11--7,PROJECT\CHESS\CHESS\ENGINE\SOURCE.CPP
/c /ZI /nologo /W3 /WX- /diagnostics:classic /sdl /Od /D _MBCS /Gm- /EHsc /RTC1 /MDd /GS /fp:precise /permissive- /Zc:wchar_t /Zc:forScope /Zc:inline /Fo"X64\DEBUG\\" /Fd"X64\DEBUG\VC141.PDB" /Gd /TP /FC C:\USERS\MAGSHIMIM\DOCUMENTS\MAGSHIMIM\C++\HW\29.11--7,PROJECT\CHESS\CHESS\ENGINE\SOURCE.CPP
