^C:\USERS\MAGSHIMIM\DOCUMENTS\MAGSHIMIM\C++\HW\29.11--7,PROJECT\CHESS\CHESS\ENGINE\X64\DEBUG\BISHOP.OBJ|C:\USERS\MAGSHIMIM\DOCUMENTS\MAGSHIMIM\C++\HW\29.11--7,PROJECT\CHESS\CHESS\ENGINE\X64\DEBUG\COMM.OBJ|C:\USERS\MAGSHIMIM\DOCUMENTS\MAGSHIMIM\C++\HW\29.11--7,PROJECT\CHESS\CHESS\ENGINE\X64\DEBUG\KING.OBJ|C:\USERS\MAGSHIMIM\DOCUMENTS\MAGSHIMIM\C++\HW\29.11--7,PROJECT\CHESS\CHESS\ENGINE\X64\DEBUG\KNIGHT.OBJ|C:\USERS\MAGSHIMIM\DOCUMENTS\MAGSHIMIM\C++\HW\29.11--7,PROJECT\CHESS\CHESS\ENGINE\X64\DEBUG\PAWN.OBJ|C:\USERS\MAGSHIMIM\DOCUMENTS\MAGSHIMIM\C++\HW\29.11--7,PROJECT\CHESS\CHESS\ENGINE\X64\DEBUG\PIECE.OBJ|C:\USERS\MAGSHIMIM\DOCUMENTS\MAGSHIMIM\C++\HW\29.11--7,PROJECT\CHESS\CHESS\ENGINE\X64\DEBUG\QUEEN.OBJ|C:\USERS\MAGSHIMIM\DOCUMENTS\MAGSHIMIM\C++\HW\29.11--7,PROJECT\CHESS\CHESS\ENGINE\X64\DEBUG\ROOK.OBJ|C:\USERS\MAGSHIMIM\DOCUMENTS\MAGSHIMIM\C++\HW\29.11--7,PROJECT\CHESS\CHESS\ENGINE\X64\DEBUG\SOURCE.OBJ|C:\USERS\MAGSHIMIM\DOCUMENTS\MAGSHIMIM\C++\HW\29.11--7,PROJECT\CHESS\CHESS\ENGINE\X64\DEBUG\STDAFX.OBJ
C:\PROGRAM FILES (X86)\WINDOWS KITS\10\LIB\10.0.16299.0\UM\X64\KERNEL32.LIB
C:\PROGRAM FILES (X86)\WINDOWS KITS\10\LIB\10.0.16299.0\UM\X64\USER32.LIB
C:\PROGRAM FILES (X86)\WINDOWS KITS\10\LIB\10.0.16299.0\UM\X64\GDI32.LIB
C:\PROGRAM FILES (X86)\WINDOWS KITS\10\LIB\10.0.16299.0\UM\X64\WINSPOOL.LIB
C:\PROGRAM FILES (X86)\WINDOWS KITS\10\LIB\10.0.16299.0\UM\X64\COMDLG32.LIB
C:\PROGRAM FILES (X86)\WINDOWS KITS\10\LIB\10.0.16299.0\UM\X64\ADVAPI32.LIB
C:\PROGRAM FILES (X86)\WINDOWS KITS\10\LIB\10.0.16299.0\UM\X64\SHELL32.LIB
C:\PROGRAM FILES (X86)\WINDOWS KITS\10\LIB\10.0.16299.0\UM\X64\OLE32.LIB
C:\PROGRAM FILES (X86)\WINDOWS KITS\10\LIB\10.0.16299.0\UM\X64\OLEAUT32.LIB
C:\PROGRAM FILES (X86)\WINDOWS KITS\10\LIB\10.0.16299.0\UM\X64\UUID.LIB
C:\PROGRAM FILES (X86)\WINDOWS KITS\10\LIB\10.0.16299.0\UM\X64\ODBC32.LIB
C:\PROGRAM FILES (X86)\WINDOWS KITS\10\LIB\10.0.16299.0\UM\X64\ODBCCP32.LIB
C:\USERS\MAGSHIMIM\DOCUMENTS\MAGSHIMIM\C++\HW\29.11--7,PROJECT\CHESS\CHESS\ENGINE\X64\DEBUG\BISHOP.OBJ
C:\USERS\MAGSHIMIM\DOCUMENTS\MAGSHIMIM\C++\HW\29.11--7,PROJECT\CHESS\CHESS\ENGINE\X64\DEBUG\COMM.OBJ
C:\USERS\MAGSHIMIM\DOCUMENTS\MAGSHIMIM\C++\HW\29.11--7,PROJECT\CHESS\CHESS\ENGINE\X64\DEBUG\KING.OBJ
C:\USERS\MAGSHIMIM\DOCUMENTS\MAGSHIMIM\C++\HW\29.11--7,PROJECT\CHESS\CHESS\ENGINE\X64\DEBUG\KNIGHT.OBJ
C:\USERS\MAGSHIMIM\DOCUMENTS\MAGSHIMIM\C++\HW\29.11--7,PROJECT\CHESS\CHESS\ENGINE\X64\DEBUG\PAWN.OBJ
C:\USERS\MAGSHIMIM\DOCUMENTS\MAGSHIMIM\C++\HW\29.11--7,PROJECT\CHESS\CHESS\ENGINE\X64\DEBUG\PIECE.OBJ
C:\USERS\MAGSHIMIM\DOCUMENTS\MAGSHIMIM\C++\HW\29.11--7,PROJECT\CHESS\CHESS\ENGINE\X64\DEBUG\QUEEN.OBJ
C:\USERS\MAGSHIMIM\DOCUMENTS\MAGSHIMIM\C++\HW\29.11--7,PROJECT\CHESS\CHESS\ENGINE\X64\DEBUG\ROOK.OBJ
C:\USERS\MAGSHIMIM\DOCUMENTS\MAGSHIMIM\C++\HW\29.11--7,PROJECT\CHESS\CHESS\ENGINE\X64\DEBUG\SOURCE.OBJ
C:\USERS\MAGSHIMIM\DOCUMENTS\MAGSHIMIM\C++\HW\29.11--7,PROJECT\CHESS\CHESS\ENGINE\X64\DEBUG\STDAFX.OBJ
C:\WINDOWS\SYSTEM32\TZRES.DLL
C:\WINDOWS\GLOBALIZATION\SORTING\SORTDEFAULT.NLS
C:\PROGRAM FILES (X86)\MICROSOFT VISUAL STUDIO\2017\COMMUNITY\VC\TOOLS\MSVC\14.13.26128\LIB\X64\MSVCRTD.LIB
C:\PROGRAM FILES (X86)\MICROSOFT VISUAL STUDIO\2017\COMMUNITY\VC\TOOLS\MSVC\14.13.26128\LIB\X64\OLDNAMES.LIB
C:\PROGRAM FILES (X86)\MICROSOFT VISUAL STUDIO\2017\COMMUNITY\VC\TOOLS\MSVC\14.13.26128\LIB\X64\MSVCPRTD.LIB
C:\PROGRAM FILES (X86)\MICROSOFT VISUAL STUDIO\2017\COMMUNITY\VC\TOOLS\MSVC\14.13.26128\LIB\X64\VCRUNTIMED.LIB
C:\PROGRAM FILES (X86)\WINDOWS KITS\10\LIB\10.0.16299.0\UCRT\X64\UCRTD.LIB
C:\PROGRAM FILES (X86)\MICROSOFT VISUAL STUDIO\2017\COMMUNITY\VC\TOOLS\MSVC\14.13.26128\BIN\HOSTX86\X64\VCTIP.EXE
