^C:\USERS\MAGSHIMIM\DOCUMENTS\PROGRAMMING\ADVANCEDPROGRAMMING\CHESSPROJECT\CHESS\ENGINE\DEBUG\BISHOP.OBJ|C:\USERS\MAGSHIMIM\DOCUMENTS\PROGRAMMING\ADVANCEDPROGRAMMING\CHESSPROJECT\CHESS\ENGINE\DEBUG\COMM.OBJ|C:\USERS\MAGSHIMIM\DOCUMENTS\PROGRAMMING\ADVANCEDPROGRAMMING\CHESSPROJECT\CHESS\ENGINE\DEBUG\KING.OBJ|C:\USERS\MAGSHIMIM\DOCUMENTS\PROGRAMMING\ADVANCEDPROGRAMMING\CHESSPROJECT\CHESS\ENGINE\DEBUG\KNIGHT.OBJ|C:\USERS\MAGSHIMIM\DOCUMENTS\PROGRAMMING\ADVANCEDPROGRAMMING\CHESSPROJECT\CHESS\ENGINE\DEBUG\PAWN.OBJ|C:\USERS\MAGSHIMIM\DOCUMENTS\PROGRAMMING\ADVANCEDPROGRAMMING\CHESSPROJECT\CHESS\ENGINE\DEBUG\PIECE.OBJ|C:\USERS\MAGSHIMIM\DOCUMENTS\PROGRAMMING\ADVANCEDPROGRAMMING\CHESSPROJECT\CHESS\ENGINE\DEBUG\QUEEN.OBJ|C:\USERS\MAGSHIMIM\DOCUMENTS\PROGRAMMING\ADVANCEDPROGRAMMING\CHESSPROJECT\CHESS\ENGINE\DEBUG\ROOK.OBJ|C:\USERS\MAGSHIMIM\DOCUMENTS\PROGRAMMING\ADVANCEDPROGRAMMING\CHESSPROJECT\CHESS\ENGINE\DEBUG\SOURCE.OBJ|C:\USERS\MAGSHIMIM\DOCUMENTS\PROGRAMMING\ADVANCEDPROGRAMMING\CHESSPROJECT\CHESS\ENGINE\DEBUG\STDAFX.OBJ
C:\USERS\MAGSHIMIM\DOCUMENTS\PROGRAMMING\ADVANCEDPROGRAMMING\CHESSPROJECT\CHESS\DEBUG\ENGINE.EXE
C:\USERS\MAGSHIMIM\DOCUMENTS\PROGRAMMING\ADVANCEDPROGRAMMING\CHESSPROJECT\CHESS\DEBUG\ENGINE.ILK
C:\USERS\MAGSHIMIM\DOCUMENTS\PROGRAMMING\ADVANCEDPROGRAMMING\CHESSPROJECT\CHESS\DEBUG\ENGINE.PDB
